-- Merging decision tree log ---
manifest
ADDED from C:\Users\Usuario\AndroidStudioProjects\PruebaFirebase\app\src\main\AndroidManifest.xml:2:1-21:12
INJECTED from C:\Users\Usuario\AndroidStudioProjects\PruebaFirebase\app\src\main\AndroidManifest.xml:2:1-21:12
INJECTED from C:\Users\Usuario\AndroidStudioProjects\PruebaFirebase\app\src\main\AndroidManifest.xml:2:1-21:12
INJECTED from C:\Users\Usuario\AndroidStudioProjects\PruebaFirebase\app\src\main\AndroidManifest.xml:2:1-21:12
MERGED from [androidx.appcompat:appcompat:1.1.0] C:\Users\Usuario\.gradle\caches\transforms-2\files-2.1\396e7ddea1addefd32f4f3d87ec48909\appcompat-1.1.0\AndroidManifest.xml:17:1-24:12
MERGED from [androidx.constraintlayout:constraintlayout:1.1.3] C:\Users\Usuario\.gradle\caches\transforms-2\files-2.1\d5fde9b470ca241c13fa0641ca95ae4a\constraintlayout-1.1.3\AndroidManifest.xml:2:1-11:12
MERGED from [com.google.firebase:firebase-firestore:17.1.2] C:\Users\Usuario\.gradle\caches\transforms-2\files-2.1\abb1bf3081cfea167d8b889e80df37ea\jetified-firebase-firestore-17.1.2\AndroidManifest.xml:2:1-21:12
MERGED from [com.google.firebase:firebase-analytics:17.5.0] C:\Users\Usuario\.gradle\caches\transforms-2\files-2.1\3f8c42246e249ac7f9db8e590b0ba415\jetified-firebase-analytics-17.5.0\AndroidManifest.xml:2:1-9:12
MERGED from [com.google.firebase:firebase-database:19.3.1] C:\Users\Usuario\.gradle\caches\transforms-2\files-2.1\227f78203b0b12a1d5db88f7e5b8d4d8\jetified-firebase-database-19.3.1\AndroidManifest.xml:15:1-38:12
MERGED from [androidx.multidex:multidex:2.0.0] C:\Users\Usuario\.gradle\caches\transforms-2\files-2.1\3b8a4cd57dcd7fb4105f916ddbf7b04c\multidex-2.0.0\AndroidManifest.xml:17:1-22:12
MERGED from [com.google.firebase:firebase-auth-interop:18.0.0] C:\Users\Usuario\.gradle\caches\transforms-2\files-2.1\a7d8f69e611387adc0da5d80735493a1\jetified-firebase-auth-interop-18.0.0\AndroidManifest.xml:2:1-10:12
MERGED from [com.google.firebase:firebase-database-collection:17.0.1] C:\Users\Usuario\.gradle\caches\transforms-2\files-2.1\dbe13819e3ebf098a865ce8aedc31d6e\jetified-firebase-database-collection-17.0.1\AndroidManifest.xml:2:1-9:12
MERGED from [com.google.android.gms:play-services-base:17.0.0] C:\Users\Usuario\.gradle\caches\transforms-2\files-2.1\9d9f5eefb5bcc469207d44112eb03d4a\jetified-play-services-base-17.0.0\AndroidManifest.xml:17:1-29:12
MERGED from [com.google.android.gms:play-services-measurement:17.5.0] C:\Users\Usuario\.gradle\caches\transforms-2\files-2.1\58a41218ea342964128b5404cfbbd677\jetified-play-services-measurement-17.5.0\AndroidManifest.xml:17:1-46:12
MERGED from [com.google.android.gms:play-services-measurement-api:17.5.0] C:\Users\Usuario\.gradle\caches\transforms-2\files-2.1\35f10b9aa3282e0c4ce3ae644ab33b75\jetified-play-services-measurement-api-17.5.0\AndroidManifest.xml:17:1-36:12
MERGED from [com.google.android.gms:play-services-measurement-sdk:17.5.0] C:\Users\Usuario\.gradle\caches\transforms-2\files-2.1\f35191409ebfccb7d81f7725507032f3\jetified-play-services-measurement-sdk-17.5.0\AndroidManifest.xml:17:1-25:12
MERGED from [com.google.firebase:firebase-installations:16.3.2] C:\Users\Usuario\.gradle\caches\transforms-2\files-2.1\4d2d6e18a23e71677122246f9e56e667\jetified-firebase-installations-16.3.2\AndroidManifest.xml:2:1-23:12
MERGED from [com.google.firebase:firebase-common:19.3.0] C:\Users\Usuario\.gradle\caches\transforms-2\files-2.1\d5ae2f905dca277d72c2333071856016\jetified-firebase-common-19.3.0\AndroidManifest.xml:15:1-39:12
MERGED from [com.google.firebase:firebase-installations-interop:16.0.0] C:\Users\Usuario\.gradle\caches\transforms-2\files-2.1\f83230e685678f09189e9abde1693e34\jetified-firebase-installations-interop-16.0.0\AndroidManifest.xml:15:1-23:12
MERGED from [com.google.android.gms:play-services-tasks:17.0.0] C:\Users\Usuario\.gradle\caches\transforms-2\files-2.1\61b6250f2312bb6eaf48524efa92324f\jetified-play-services-tasks-17.0.0\AndroidManifest.xml:2:1-9:12
MERGED from [com.google.android.gms:play-services-measurement-impl:17.5.0] C:\Users\Usuario\.gradle\caches\transforms-2\files-2.1\32e9335ebde6078fe4d6f21d34f4ca53\jetified-play-services-measurement-impl-17.5.0\AndroidManifest.xml:17:1-31:12
MERGED from [com.google.android.gms:play-services-ads-identifier:17.0.0] C:\Users\Usuario\.gradle\caches\transforms-2\files-2.1\e394617086bc0f39350a56b4b7bfa6fd\jetified-play-services-ads-identifier-17.0.0\AndroidManifest.xml:17:1-24:12
MERGED from [com.google.android.gms:play-services-measurement-sdk-api:17.5.0] C:\Users\Usuario\.gradle\caches\transforms-2\files-2.1\cd1ec5d99f4fdc26521eac46eeaab1a6\jetified-play-services-measurement-sdk-api-17.5.0\AndroidManifest.xml:17:1-27:12
MERGED from [com.google.android.gms:play-services-measurement-base:17.5.0] C:\Users\Usuario\.gradle\caches\transforms-2\files-2.1\1e7293598cb4fba2f202db480bed682c\jetified-play-services-measurement-base-17.5.0\AndroidManifest.xml:2:1-9:12
MERGED from [com.google.android.gms:play-services-stats:17.0.0] C:\Users\Usuario\.gradle\caches\transforms-2\files-2.1\b4cf759fbefe631836a911785c931842\jetified-play-services-stats-17.0.0\AndroidManifest.xml:2:1-9:12
MERGED from [com.google.firebase:firebase-measurement-connector:18.0.0] C:\Users\Usuario\.gradle\caches\transforms-2\files-2.1\eb1940bc3fb957fd232db9f27e4df6ed\jetified-firebase-measurement-connector-18.0.0\AndroidManifest.xml:17:1-25:12
MERGED from [com.google.android.gms:play-services-basement:17.0.0] C:\Users\Usuario\.gradle\caches\transforms-2\files-2.1\f258e3825c6af3b14c7ec1616fae4742\jetified-play-services-basement-17.0.0\AndroidManifest.xml:17:1-28:12
MERGED from [androidx.fragment:fragment:1.1.0] C:\Users\Usuario\.gradle\caches\transforms-2\files-2.1\e40e3efd5a968ec9847eae2ae9c7d8ac\fragment-1.1.0\AndroidManifest.xml:17:1-24:12
MERGED from [androidx.appcompat:appcompat-resources:1.1.0] C:\Users\Usuario\.gradle\caches\transforms-2\files-2.1\e66da8b5301e9a6b4d099a6eed9ee5b8\jetified-appcompat-resources-1.1.0\AndroidManifest.xml:17:1-24:12
MERGED from [androidx.drawerlayout:drawerlayout:1.0.0] C:\Users\Usuario\.gradle\caches\transforms-2\files-2.1\6984223d1aa8f315c8c42812a9db3a3b\drawerlayout-1.0.0\AndroidManifest.xml:17:1-22:12
MERGED from [androidx.viewpager:viewpager:1.0.0] C:\Users\Usuario\.gradle\caches\transforms-2\files-2.1\bd24342c93fd52cb5e9c9c7bb35f50f1\viewpager-1.0.0\AndroidManifest.xml:17:1-22:12
MERGED from [androidx.legacy:legacy-support-core-utils:1.0.0] C:\Users\Usuario\.gradle\caches\transforms-2\files-2.1\92ce016465e3a6bb2a1c0eeefed0193e\legacy-support-core-utils-1.0.0\AndroidManifest.xml:17:1-22:12
MERGED from [androidx.loader:loader:1.0.0] C:\Users\Usuario\.gradle\caches\transforms-2\files-2.1\148f2fd794536689e5a7e95e250ac390\loader-1.0.0\AndroidManifest.xml:17:1-22:12
MERGED from [androidx.activity:activity:1.0.0] C:\Users\Usuario\.gradle\caches\transforms-2\files-2.1\5d880c01bc106322c4b2a83be9757563\jetified-activity-1.0.0\AndroidManifest.xml:17:1-24:12
MERGED from [androidx.vectordrawable:vectordrawable-animated:1.1.0] C:\Users\Usuario\.gradle\caches\transforms-2\files-2.1\7369d370d1c3f03944cff7adb4eeb0ab\vectordrawable-animated-1.1.0\AndroidManifest.xml:17:1-24:12
MERGED from [androidx.vectordrawable:vectordrawable:1.1.0] C:\Users\Usuario\.gradle\caches\transforms-2\files-2.1\57d4ae6adbb5ccfa9dafa8ad36f43ff8\vectordrawable-1.1.0\AndroidManifest.xml:17:1-24:12
MERGED from [androidx.customview:customview:1.0.0] C:\Users\Usuario\.gradle\caches\transforms-2\files-2.1\2be247bf8cbe2dd724b705391ddac84d\customview-1.0.0\AndroidManifest.xml:17:1-22:12
MERGED from [androidx.core:core:1.1.0] C:\Users\Usuario\.gradle\caches\transforms-2\files-2.1\6cdf211888e0a7ccbf81d39b63072413\core-1.1.0\AndroidManifest.xml:17:1-26:12
MERGED from [androidx.cursoradapter:cursoradapter:1.0.0] C:\Users\Usuario\.gradle\caches\transforms-2\files-2.1\705071dba30571a9226503cb1f0dac80\cursoradapter-1.0.0\AndroidManifest.xml:17:1-22:12
MERGED from [com.google.firebase:firebase-components:16.0.0] C:\Users\Usuario\.gradle\caches\transforms-2\files-2.1\626cd0cdd86577b53b05b9ceb0f9a7ca\jetified-firebase-components-16.0.0\AndroidManifest.xml:15:1-23:12
MERGED from [androidx.versionedparcelable:versionedparcelable:1.1.0] C:\Users\Usuario\.gradle\caches\transforms-2\files-2.1\324b5866ad2c13339651997b434b41f3\versionedparcelable-1.1.0\AndroidManifest.xml:17:1-27:12
MERGED from [androidx.lifecycle:lifecycle-runtime:2.1.0] C:\Users\Usuario\.gradle\caches\transforms-2\files-2.1\6750b43e205c4f520c814d38be8b2dbe\lifecycle-runtime-2.1.0\AndroidManifest.xml:17:1-22:12
MERGED from [androidx.lifecycle:lifecycle-viewmodel:2.1.0] C:\Users\Usuario\.gradle\caches\transforms-2\files-2.1\4585a9ad75e82c7c92523d92d109b415\lifecycle-viewmodel-2.1.0\AndroidManifest.xml:17:1-22:12
MERGED from [androidx.savedstate:savedstate:1.0.0] C:\Users\Usuario\.gradle\caches\transforms-2\files-2.1\d831d74eee9f185c588b244b4025c98f\jetified-savedstate-1.0.0\AndroidManifest.xml:17:1-24:12
MERGED from [androidx.interpolator:interpolator:1.0.0] C:\Users\Usuario\.gradle\caches\transforms-2\files-2.1\6435850e23f2d01013861f1c8dbdb3a0\interpolator-1.0.0\AndroidManifest.xml:17:1-22:12
MERGED from [androidx.documentfile:documentfile:1.0.0] C:\Users\Usuario\.gradle\caches\transforms-2\files-2.1\6ca55331635d9ca1071738b385928a75\documentfile-1.0.0\AndroidManifest.xml:17:1-22:12
MERGED from [androidx.localbroadcastmanager:localbroadcastmanager:1.0.0] C:\Users\Usuario\.gradle\caches\transforms-2\files-2.1\bf3e5eb0de5dbaf7174c5a9a34f69c5a\localbroadcastmanager-1.0.0\AndroidManifest.xml:17:1-22:12
MERGED from [androidx.print:print:1.0.0] C:\Users\Usuario\.gradle\caches\transforms-2\files-2.1\d5fd7fbc692311a845217063332ce16c\print-1.0.0\AndroidManifest.xml:17:1-22:12
MERGED from [androidx.lifecycle:lifecycle-livedata:2.0.0] C:\Users\Usuario\.gradle\caches\transforms-2\files-2.1\f15487c13029c5c78640eedfe3e4179f\lifecycle-livedata-2.0.0\AndroidManifest.xml:17:1-22:12
MERGED from [androidx.lifecycle:lifecycle-livedata-core:2.0.0] C:\Users\Usuario\.gradle\caches\transforms-2\files-2.1\b77454809810e03ad1b0b8586694d509\lifecycle-livedata-core-2.0.0\AndroidManifest.xml:17:1-22:12
MERGED from [androidx.arch.core:core-runtime:2.0.0] C:\Users\Usuario\.gradle\caches\transforms-2\files-2.1\59b723f090061559cc5b6f12f2aff3bc\core-runtime-2.0.0\AndroidManifest.xml:17:1-22:12
MERGED from [com.google.firebase:protolite-well-known-types:16.0.0] C:\Users\Usuario\.gradle\caches\transforms-2\files-2.1\d5eab90321a72c93b02ce2e3c3d02d98\jetified-protolite-well-known-types-16.0.0\AndroidManifest.xml:2:1-11:12
INJECTED from C:\Users\Usuario\AndroidStudioProjects\PruebaFirebase\app\src\main\AndroidManifest.xml:2:1-21:12
INJECTED from C:\Users\Usuario\AndroidStudioProjects\PruebaFirebase\app\src\main\AndroidManifest.xml:2:1-21:12
INJECTED from C:\Users\Usuario\AndroidStudioProjects\PruebaFirebase\app\src\main\AndroidManifest.xml:2:1-21:12
	package
		ADDED from C:\Users\Usuario\AndroidStudioProjects\PruebaFirebase\app\src\main\AndroidManifest.xml:3:5-35
		INJECTED from C:\Users\Usuario\AndroidStudioProjects\PruebaFirebase\app\src\main\AndroidManifest.xml
		INJECTED from C:\Users\Usuario\AndroidStudioProjects\PruebaFirebase\app\src\main\AndroidManifest.xml
	android:versionName
		INJECTED from C:\Users\Usuario\AndroidStudioProjects\PruebaFirebase\app\src\main\AndroidManifest.xml
		ADDED from C:\Users\Usuario\AndroidStudioProjects\PruebaFirebase\app\src\main\AndroidManifest.xml:2:1-21:12
		INJECTED from C:\Users\Usuario\AndroidStudioProjects\PruebaFirebase\app\src\main\AndroidManifest.xml
	android:versionCode
		INJECTED from C:\Users\Usuario\AndroidStudioProjects\PruebaFirebase\app\src\main\AndroidManifest.xml
		ADDED from C:\Users\Usuario\AndroidStudioProjects\PruebaFirebase\app\src\main\AndroidManifest.xml:2:1-21:12
		INJECTED from C:\Users\Usuario\AndroidStudioProjects\PruebaFirebase\app\src\main\AndroidManifest.xml
	xmlns:android
		ADDED from C:\Users\Usuario\AndroidStudioProjects\PruebaFirebase\app\src\main\AndroidManifest.xml:2:11-69
uses-permission#android.permission.INTERNET
ADDED from C:\Users\Usuario\AndroidStudioProjects\PruebaFirebase\app\src\main\AndroidManifest.xml:4:5-66
MERGED from [com.google.firebase:firebase-firestore:17.1.2] C:\Users\Usuario\.gradle\caches\transforms-2\files-2.1\abb1bf3081cfea167d8b889e80df37ea\jetified-firebase-firestore-17.1.2\AndroidManifest.xml:11:5-67
MERGED from [com.google.firebase:firebase-firestore:17.1.2] C:\Users\Usuario\.gradle\caches\transforms-2\files-2.1\abb1bf3081cfea167d8b889e80df37ea\jetified-firebase-firestore-17.1.2\AndroidManifest.xml:11:5-67
MERGED from [com.google.firebase:firebase-database:19.3.1] C:\Users\Usuario\.gradle\caches\transforms-2\files-2.1\227f78203b0b12a1d5db88f7e5b8d4d8\jetified-firebase-database-19.3.1\AndroidManifest.xml:26:5-67
MERGED from [com.google.firebase:firebase-database:19.3.1] C:\Users\Usuario\.gradle\caches\transforms-2\files-2.1\227f78203b0b12a1d5db88f7e5b8d4d8\jetified-firebase-database-19.3.1\AndroidManifest.xml:26:5-67
MERGED from [com.google.android.gms:play-services-measurement:17.5.0] C:\Users\Usuario\.gradle\caches\transforms-2\files-2.1\58a41218ea342964128b5404cfbbd677\jetified-play-services-measurement-17.5.0\AndroidManifest.xml:23:5-67
MERGED from [com.google.android.gms:play-services-measurement:17.5.0] C:\Users\Usuario\.gradle\caches\transforms-2\files-2.1\58a41218ea342964128b5404cfbbd677\jetified-play-services-measurement-17.5.0\AndroidManifest.xml:23:5-67
MERGED from [com.google.android.gms:play-services-measurement-api:17.5.0] C:\Users\Usuario\.gradle\caches\transforms-2\files-2.1\35f10b9aa3282e0c4ce3ae644ab33b75\jetified-play-services-measurement-api-17.5.0\AndroidManifest.xml:22:5-67
MERGED from [com.google.android.gms:play-services-measurement-api:17.5.0] C:\Users\Usuario\.gradle\caches\transforms-2\files-2.1\35f10b9aa3282e0c4ce3ae644ab33b75\jetified-play-services-measurement-api-17.5.0\AndroidManifest.xml:22:5-67
MERGED from [com.google.firebase:firebase-installations:16.3.2] C:\Users\Usuario\.gradle\caches\transforms-2\files-2.1\4d2d6e18a23e71677122246f9e56e667\jetified-firebase-installations-16.3.2\AndroidManifest.xml:11:5-67
MERGED from [com.google.firebase:firebase-installations:16.3.2] C:\Users\Usuario\.gradle\caches\transforms-2\files-2.1\4d2d6e18a23e71677122246f9e56e667\jetified-firebase-installations-16.3.2\AndroidManifest.xml:11:5-67
MERGED from [com.google.android.gms:play-services-measurement-impl:17.5.0] C:\Users\Usuario\.gradle\caches\transforms-2\files-2.1\32e9335ebde6078fe4d6f21d34f4ca53\jetified-play-services-measurement-impl-17.5.0\AndroidManifest.xml:23:5-67
MERGED from [com.google.android.gms:play-services-measurement-impl:17.5.0] C:\Users\Usuario\.gradle\caches\transforms-2\files-2.1\32e9335ebde6078fe4d6f21d34f4ca53\jetified-play-services-measurement-impl-17.5.0\AndroidManifest.xml:23:5-67
MERGED from [com.google.android.gms:play-services-measurement-sdk-api:17.5.0] C:\Users\Usuario\.gradle\caches\transforms-2\files-2.1\cd1ec5d99f4fdc26521eac46eeaab1a6\jetified-play-services-measurement-sdk-api-17.5.0\AndroidManifest.xml:23:5-67
MERGED from [com.google.android.gms:play-services-measurement-sdk-api:17.5.0] C:\Users\Usuario\.gradle\caches\transforms-2\files-2.1\cd1ec5d99f4fdc26521eac46eeaab1a6\jetified-play-services-measurement-sdk-api-17.5.0\AndroidManifest.xml:23:5-67
	android:name
		ADDED from C:\Users\Usuario\AndroidStudioProjects\PruebaFirebase\app\src\main\AndroidManifest.xml:4:22-64
application
ADDED from C:\Users\Usuario\AndroidStudioProjects\PruebaFirebase\app\src\main\AndroidManifest.xml:5:5-19:19
MERGED from [androidx.constraintlayout:constraintlayout:1.1.3] C:\Users\Usuario\.gradle\caches\transforms-2\files-2.1\d5fde9b470ca241c13fa0641ca95ae4a\constraintlayout-1.1.3\AndroidManifest.xml:9:5-20
MERGED from [androidx.constraintlayout:constraintlayout:1.1.3] C:\Users\Usuario\.gradle\caches\transforms-2\files-2.1\d5fde9b470ca241c13fa0641ca95ae4a\constraintlayout-1.1.3\AndroidManifest.xml:9:5-20
MERGED from [com.google.firebase:firebase-firestore:17.1.2] C:\Users\Usuario\.gradle\caches\transforms-2\files-2.1\abb1bf3081cfea167d8b889e80df37ea\jetified-firebase-firestore-17.1.2\AndroidManifest.xml:13:5-19:19
MERGED from [com.google.firebase:firebase-firestore:17.1.2] C:\Users\Usuario\.gradle\caches\transforms-2\files-2.1\abb1bf3081cfea167d8b889e80df37ea\jetified-firebase-firestore-17.1.2\AndroidManifest.xml:13:5-19:19
MERGED from [com.google.firebase:firebase-analytics:17.5.0] C:\Users\Usuario\.gradle\caches\transforms-2\files-2.1\3f8c42246e249ac7f9db8e590b0ba415\jetified-firebase-analytics-17.5.0\AndroidManifest.xml:7:5-20
MERGED from [com.google.firebase:firebase-analytics:17.5.0] C:\Users\Usuario\.gradle\caches\transforms-2\files-2.1\3f8c42246e249ac7f9db8e590b0ba415\jetified-firebase-analytics-17.5.0\AndroidManifest.xml:7:5-20
MERGED from [com.google.firebase:firebase-database:19.3.1] C:\Users\Usuario\.gradle\caches\transforms-2\files-2.1\227f78203b0b12a1d5db88f7e5b8d4d8\jetified-firebase-database-19.3.1\AndroidManifest.xml:28:5-36:19
MERGED from [com.google.firebase:firebase-database:19.3.1] C:\Users\Usuario\.gradle\caches\transforms-2\files-2.1\227f78203b0b12a1d5db88f7e5b8d4d8\jetified-firebase-database-19.3.1\AndroidManifest.xml:28:5-36:19
MERGED from [com.google.firebase:firebase-auth-interop:18.0.0] C:\Users\Usuario\.gradle\caches\transforms-2\files-2.1\a7d8f69e611387adc0da5d80735493a1\jetified-firebase-auth-interop-18.0.0\AndroidManifest.xml:7:5-8:19
MERGED from [com.google.firebase:firebase-auth-interop:18.0.0] C:\Users\Usuario\.gradle\caches\transforms-2\files-2.1\a7d8f69e611387adc0da5d80735493a1\jetified-firebase-auth-interop-18.0.0\AndroidManifest.xml:7:5-8:19
MERGED from [com.google.android.gms:play-services-base:17.0.0] C:\Users\Usuario\.gradle\caches\transforms-2\files-2.1\9d9f5eefb5bcc469207d44112eb03d4a\jetified-play-services-base-17.0.0\AndroidManifest.xml:22:5-27:19
MERGED from [com.google.android.gms:play-services-base:17.0.0] C:\Users\Usuario\.gradle\caches\transforms-2\files-2.1\9d9f5eefb5bcc469207d44112eb03d4a\jetified-play-services-base-17.0.0\AndroidManifest.xml:22:5-27:19
MERGED from [com.google.android.gms:play-services-measurement:17.5.0] C:\Users\Usuario\.gradle\caches\transforms-2\files-2.1\58a41218ea342964128b5404cfbbd677\jetified-play-services-measurement-17.5.0\AndroidManifest.xml:28:5-44:19
MERGED from [com.google.android.gms:play-services-measurement:17.5.0] C:\Users\Usuario\.gradle\caches\transforms-2\files-2.1\58a41218ea342964128b5404cfbbd677\jetified-play-services-measurement-17.5.0\AndroidManifest.xml:28:5-44:19
MERGED from [com.google.android.gms:play-services-measurement-api:17.5.0] C:\Users\Usuario\.gradle\caches\transforms-2\files-2.1\35f10b9aa3282e0c4ce3ae644ab33b75\jetified-play-services-measurement-api-17.5.0\AndroidManifest.xml:26:5-34:19
MERGED from [com.google.android.gms:play-services-measurement-api:17.5.0] C:\Users\Usuario\.gradle\caches\transforms-2\files-2.1\35f10b9aa3282e0c4ce3ae644ab33b75\jetified-play-services-measurement-api-17.5.0\AndroidManifest.xml:26:5-34:19
MERGED from [com.google.android.gms:play-services-measurement-sdk:17.5.0] C:\Users\Usuario\.gradle\caches\transforms-2\files-2.1\f35191409ebfccb7d81f7725507032f3\jetified-play-services-measurement-sdk-17.5.0\AndroidManifest.xml:22:5-23:19
MERGED from [com.google.android.gms:play-services-measurement-sdk:17.5.0] C:\Users\Usuario\.gradle\caches\transforms-2\files-2.1\f35191409ebfccb7d81f7725507032f3\jetified-play-services-measurement-sdk-17.5.0\AndroidManifest.xml:22:5-23:19
MERGED from [com.google.firebase:firebase-installations:16.3.2] C:\Users\Usuario\.gradle\caches\transforms-2\files-2.1\4d2d6e18a23e71677122246f9e56e667\jetified-firebase-installations-16.3.2\AndroidManifest.xml:13:5-21:19
MERGED from [com.google.firebase:firebase-installations:16.3.2] C:\Users\Usuario\.gradle\caches\transforms-2\files-2.1\4d2d6e18a23e71677122246f9e56e667\jetified-firebase-installations-16.3.2\AndroidManifest.xml:13:5-21:19
MERGED from [com.google.firebase:firebase-common:19.3.0] C:\Users\Usuario\.gradle\caches\transforms-2\files-2.1\d5ae2f905dca277d72c2333071856016\jetified-firebase-common-19.3.0\AndroidManifest.xml:25:5-37:19
MERGED from [com.google.firebase:firebase-common:19.3.0] C:\Users\Usuario\.gradle\caches\transforms-2\files-2.1\d5ae2f905dca277d72c2333071856016\jetified-firebase-common-19.3.0\AndroidManifest.xml:25:5-37:19
MERGED from [com.google.android.gms:play-services-tasks:17.0.0] C:\Users\Usuario\.gradle\caches\transforms-2\files-2.1\61b6250f2312bb6eaf48524efa92324f\jetified-play-services-tasks-17.0.0\AndroidManifest.xml:7:5-20
MERGED from [com.google.android.gms:play-services-tasks:17.0.0] C:\Users\Usuario\.gradle\caches\transforms-2\files-2.1\61b6250f2312bb6eaf48524efa92324f\jetified-play-services-tasks-17.0.0\AndroidManifest.xml:7:5-20
MERGED from [com.google.android.gms:play-services-measurement-impl:17.5.0] C:\Users\Usuario\.gradle\caches\transforms-2\files-2.1\32e9335ebde6078fe4d6f21d34f4ca53\jetified-play-services-measurement-impl-17.5.0\AndroidManifest.xml:28:5-29:19
MERGED from [com.google.android.gms:play-services-measurement-impl:17.5.0] C:\Users\Usuario\.gradle\caches\transforms-2\files-2.1\32e9335ebde6078fe4d6f21d34f4ca53\jetified-play-services-measurement-impl-17.5.0\AndroidManifest.xml:28:5-29:19
MERGED from [com.google.android.gms:play-services-ads-identifier:17.0.0] C:\Users\Usuario\.gradle\caches\transforms-2\files-2.1\e394617086bc0f39350a56b4b7bfa6fd\jetified-play-services-ads-identifier-17.0.0\AndroidManifest.xml:22:5-20
MERGED from [com.google.android.gms:play-services-ads-identifier:17.0.0] C:\Users\Usuario\.gradle\caches\transforms-2\files-2.1\e394617086bc0f39350a56b4b7bfa6fd\jetified-play-services-ads-identifier-17.0.0\AndroidManifest.xml:22:5-20
MERGED from [com.google.android.gms:play-services-measurement-base:17.5.0] C:\Users\Usuario\.gradle\caches\transforms-2\files-2.1\1e7293598cb4fba2f202db480bed682c\jetified-play-services-measurement-base-17.5.0\AndroidManifest.xml:7:5-20
MERGED from [com.google.android.gms:play-services-measurement-base:17.5.0] C:\Users\Usuario\.gradle\caches\transforms-2\files-2.1\1e7293598cb4fba2f202db480bed682c\jetified-play-services-measurement-base-17.5.0\AndroidManifest.xml:7:5-20
MERGED from [com.google.android.gms:play-services-stats:17.0.0] C:\Users\Usuario\.gradle\caches\transforms-2\files-2.1\b4cf759fbefe631836a911785c931842\jetified-play-services-stats-17.0.0\AndroidManifest.xml:7:5-20
MERGED from [com.google.android.gms:play-services-stats:17.0.0] C:\Users\Usuario\.gradle\caches\transforms-2\files-2.1\b4cf759fbefe631836a911785c931842\jetified-play-services-stats-17.0.0\AndroidManifest.xml:7:5-20
MERGED from [com.google.firebase:firebase-measurement-connector:18.0.0] C:\Users\Usuario\.gradle\caches\transforms-2\files-2.1\eb1940bc3fb957fd232db9f27e4df6ed\jetified-firebase-measurement-connector-18.0.0\AndroidManifest.xml:22:5-23:19
MERGED from [com.google.firebase:firebase-measurement-connector:18.0.0] C:\Users\Usuario\.gradle\caches\transforms-2\files-2.1\eb1940bc3fb957fd232db9f27e4df6ed\jetified-firebase-measurement-connector-18.0.0\AndroidManifest.xml:22:5-23:19
MERGED from [com.google.android.gms:play-services-basement:17.0.0] C:\Users\Usuario\.gradle\caches\transforms-2\files-2.1\f258e3825c6af3b14c7ec1616fae4742\jetified-play-services-basement-17.0.0\AndroidManifest.xml:22:5-26:19
MERGED from [com.google.android.gms:play-services-basement:17.0.0] C:\Users\Usuario\.gradle\caches\transforms-2\files-2.1\f258e3825c6af3b14c7ec1616fae4742\jetified-play-services-basement-17.0.0\AndroidManifest.xml:22:5-26:19
MERGED from [androidx.core:core:1.1.0] C:\Users\Usuario\.gradle\caches\transforms-2\files-2.1\6cdf211888e0a7ccbf81d39b63072413\core-1.1.0\AndroidManifest.xml:24:5-89
MERGED from [androidx.core:core:1.1.0] C:\Users\Usuario\.gradle\caches\transforms-2\files-2.1\6cdf211888e0a7ccbf81d39b63072413\core-1.1.0\AndroidManifest.xml:24:5-89
MERGED from [androidx.versionedparcelable:versionedparcelable:1.1.0] C:\Users\Usuario\.gradle\caches\transforms-2\files-2.1\324b5866ad2c13339651997b434b41f3\versionedparcelable-1.1.0\AndroidManifest.xml:24:5-25:19
MERGED from [androidx.versionedparcelable:versionedparcelable:1.1.0] C:\Users\Usuario\.gradle\caches\transforms-2\files-2.1\324b5866ad2c13339651997b434b41f3\versionedparcelable-1.1.0\AndroidManifest.xml:24:5-25:19
	android:appComponentFactory
		ADDED from [androidx.core:core:1.1.0] C:\Users\Usuario\.gradle\caches\transforms-2\files-2.1\6cdf211888e0a7ccbf81d39b63072413\core-1.1.0\AndroidManifest.xml:24:18-86
	android:supportsRtl
		ADDED from C:\Users\Usuario\AndroidStudioProjects\PruebaFirebase\app\src\main\AndroidManifest.xml:10:9-35
	android:label
		ADDED from C:\Users\Usuario\AndroidStudioProjects\PruebaFirebase\app\src\main\AndroidManifest.xml:8:9-41
	android:roundIcon
		ADDED from C:\Users\Usuario\AndroidStudioProjects\PruebaFirebase\app\src\main\AndroidManifest.xml:9:9-54
	android:icon
		ADDED from C:\Users\Usuario\AndroidStudioProjects\PruebaFirebase\app\src\main\AndroidManifest.xml:7:9-43
	android:allowBackup
		ADDED from C:\Users\Usuario\AndroidStudioProjects\PruebaFirebase\app\src\main\AndroidManifest.xml:6:9-35
	android:theme
		ADDED from C:\Users\Usuario\AndroidStudioProjects\PruebaFirebase\app\src\main\AndroidManifest.xml:11:9-40
activity#com.e.pruebafirebase.MainActivity
ADDED from C:\Users\Usuario\AndroidStudioProjects\PruebaFirebase\app\src\main\AndroidManifest.xml:12:9-18:20
	android:name
		ADDED from C:\Users\Usuario\AndroidStudioProjects\PruebaFirebase\app\src\main\AndroidManifest.xml:12:19-47
intent-filter#action:name:android.intent.action.MAIN+category:name:android.intent.category.LAUNCHER
ADDED from C:\Users\Usuario\AndroidStudioProjects\PruebaFirebase\app\src\main\AndroidManifest.xml:13:13-17:29
action#android.intent.action.MAIN
ADDED from C:\Users\Usuario\AndroidStudioProjects\PruebaFirebase\app\src\main\AndroidManifest.xml:14:17-69
	android:name
		ADDED from C:\Users\Usuario\AndroidStudioProjects\PruebaFirebase\app\src\main\AndroidManifest.xml:14:25-66
category#android.intent.category.LAUNCHER
ADDED from C:\Users\Usuario\AndroidStudioProjects\PruebaFirebase\app\src\main\AndroidManifest.xml:16:17-77
	android:name
		ADDED from C:\Users\Usuario\AndroidStudioProjects\PruebaFirebase\app\src\main\AndroidManifest.xml:16:27-74
uses-sdk
INJECTED from C:\Users\Usuario\AndroidStudioProjects\PruebaFirebase\app\src\main\AndroidManifest.xml reason: use-sdk injection requested
INJECTED from C:\Users\Usuario\AndroidStudioProjects\PruebaFirebase\app\src\main\AndroidManifest.xml
INJECTED from C:\Users\Usuario\AndroidStudioProjects\PruebaFirebase\app\src\main\AndroidManifest.xml
MERGED from [androidx.appcompat:appcompat:1.1.0] C:\Users\Usuario\.gradle\caches\transforms-2\files-2.1\396e7ddea1addefd32f4f3d87ec48909\appcompat-1.1.0\AndroidManifest.xml:20:5-22:41
MERGED from [androidx.appcompat:appcompat:1.1.0] C:\Users\Usuario\.gradle\caches\transforms-2\files-2.1\396e7ddea1addefd32f4f3d87ec48909\appcompat-1.1.0\AndroidManifest.xml:20:5-22:41
MERGED from [androidx.constraintlayout:constraintlayout:1.1.3] C:\Users\Usuario\.gradle\caches\transforms-2\files-2.1\d5fde9b470ca241c13fa0641ca95ae4a\constraintlayout-1.1.3\AndroidManifest.xml:5:5-7:41
MERGED from [androidx.constraintlayout:constraintlayout:1.1.3] C:\Users\Usuario\.gradle\caches\transforms-2\files-2.1\d5fde9b470ca241c13fa0641ca95ae4a\constraintlayout-1.1.3\AndroidManifest.xml:5:5-7:41
MERGED from [com.google.firebase:firebase-firestore:17.1.2] C:\Users\Usuario\.gradle\caches\transforms-2\files-2.1\abb1bf3081cfea167d8b889e80df37ea\jetified-firebase-firestore-17.1.2\AndroidManifest.xml:6:5-8:41
MERGED from [com.google.firebase:firebase-firestore:17.1.2] C:\Users\Usuario\.gradle\caches\transforms-2\files-2.1\abb1bf3081cfea167d8b889e80df37ea\jetified-firebase-firestore-17.1.2\AndroidManifest.xml:6:5-8:41
MERGED from [com.google.firebase:firebase-analytics:17.5.0] C:\Users\Usuario\.gradle\caches\transforms-2\files-2.1\3f8c42246e249ac7f9db8e590b0ba415\jetified-firebase-analytics-17.5.0\AndroidManifest.xml:5:5-44
MERGED from [com.google.firebase:firebase-analytics:17.5.0] C:\Users\Usuario\.gradle\caches\transforms-2\files-2.1\3f8c42246e249ac7f9db8e590b0ba415\jetified-firebase-analytics-17.5.0\AndroidManifest.xml:5:5-44
MERGED from [com.google.firebase:firebase-database:19.3.1] C:\Users\Usuario\.gradle\caches\transforms-2\files-2.1\227f78203b0b12a1d5db88f7e5b8d4d8\jetified-firebase-database-19.3.1\AndroidManifest.xml:19:5-21:41
MERGED from [com.google.firebase:firebase-database:19.3.1] C:\Users\Usuario\.gradle\caches\transforms-2\files-2.1\227f78203b0b12a1d5db88f7e5b8d4d8\jetified-firebase-database-19.3.1\AndroidManifest.xml:19:5-21:41
MERGED from [androidx.multidex:multidex:2.0.0] C:\Users\Usuario\.gradle\caches\transforms-2\files-2.1\3b8a4cd57dcd7fb4105f916ddbf7b04c\multidex-2.0.0\AndroidManifest.xml:20:5-43
MERGED from [androidx.multidex:multidex:2.0.0] C:\Users\Usuario\.gradle\caches\transforms-2\files-2.1\3b8a4cd57dcd7fb4105f916ddbf7b04c\multidex-2.0.0\AndroidManifest.xml:20:5-43
MERGED from [com.google.firebase:firebase-auth-interop:18.0.0] C:\Users\Usuario\.gradle\caches\transforms-2\files-2.1\a7d8f69e611387adc0da5d80735493a1\jetified-firebase-auth-interop-18.0.0\AndroidManifest.xml:5:5-44
MERGED from [com.google.firebase:firebase-auth-interop:18.0.0] C:\Users\Usuario\.gradle\caches\transforms-2\files-2.1\a7d8f69e611387adc0da5d80735493a1\jetified-firebase-auth-interop-18.0.0\AndroidManifest.xml:5:5-44
MERGED from [com.google.firebase:firebase-database-collection:17.0.1] C:\Users\Usuario\.gradle\caches\transforms-2\files-2.1\dbe13819e3ebf098a865ce8aedc31d6e\jetified-firebase-database-collection-17.0.1\AndroidManifest.xml:5:5-7:41
MERGED from [com.google.firebase:firebase-database-collection:17.0.1] C:\Users\Usuario\.gradle\caches\transforms-2\files-2.1\dbe13819e3ebf098a865ce8aedc31d6e\jetified-firebase-database-collection-17.0.1\AndroidManifest.xml:5:5-7:41
MERGED from [com.google.android.gms:play-services-base:17.0.0] C:\Users\Usuario\.gradle\caches\transforms-2\files-2.1\9d9f5eefb5bcc469207d44112eb03d4a\jetified-play-services-base-17.0.0\AndroidManifest.xml:20:5-44
MERGED from [com.google.android.gms:play-services-base:17.0.0] C:\Users\Usuario\.gradle\caches\transforms-2\files-2.1\9d9f5eefb5bcc469207d44112eb03d4a\jetified-play-services-base-17.0.0\AndroidManifest.xml:20:5-44
MERGED from [com.google.android.gms:play-services-measurement:17.5.0] C:\Users\Usuario\.gradle\caches\transforms-2\files-2.1\58a41218ea342964128b5404cfbbd677\jetified-play-services-measurement-17.5.0\AndroidManifest.xml:20:5-44
MERGED from [com.google.android.gms:play-services-measurement:17.5.0] C:\Users\Usuario\.gradle\caches\transforms-2\files-2.1\58a41218ea342964128b5404cfbbd677\jetified-play-services-measurement-17.5.0\AndroidManifest.xml:20:5-44
MERGED from [com.google.android.gms:play-services-measurement-api:17.5.0] C:\Users\Usuario\.gradle\caches\transforms-2\files-2.1\35f10b9aa3282e0c4ce3ae644ab33b75\jetified-play-services-measurement-api-17.5.0\AndroidManifest.xml:20:5-44
MERGED from [com.google.android.gms:play-services-measurement-api:17.5.0] C:\Users\Usuario\.gradle\caches\transforms-2\files-2.1\35f10b9aa3282e0c4ce3ae644ab33b75\jetified-play-services-measurement-api-17.5.0\AndroidManifest.xml:20:5-44
MERGED from [com.google.android.gms:play-services-measurement-sdk:17.5.0] C:\Users\Usuario\.gradle\caches\transforms-2\files-2.1\f35191409ebfccb7d81f7725507032f3\jetified-play-services-measurement-sdk-17.5.0\AndroidManifest.xml:20:5-44
MERGED from [com.google.android.gms:play-services-measurement-sdk:17.5.0] C:\Users\Usuario\.gradle\caches\transforms-2\files-2.1\f35191409ebfccb7d81f7725507032f3\jetified-play-services-measurement-sdk-17.5.0\AndroidManifest.xml:20:5-44
MERGED from [com.google.firebase:firebase-installations:16.3.2] C:\Users\Usuario\.gradle\caches\transforms-2\files-2.1\4d2d6e18a23e71677122246f9e56e667\jetified-firebase-installations-16.3.2\AndroidManifest.xml:6:5-8:41
MERGED from [com.google.firebase:firebase-installations:16.3.2] C:\Users\Usuario\.gradle\caches\transforms-2\files-2.1\4d2d6e18a23e71677122246f9e56e667\jetified-firebase-installations-16.3.2\AndroidManifest.xml:6:5-8:41
MERGED from [com.google.firebase:firebase-common:19.3.0] C:\Users\Usuario\.gradle\caches\transforms-2\files-2.1\d5ae2f905dca277d72c2333071856016\jetified-firebase-common-19.3.0\AndroidManifest.xml:20:5-22:41
MERGED from [com.google.firebase:firebase-common:19.3.0] C:\Users\Usuario\.gradle\caches\transforms-2\files-2.1\d5ae2f905dca277d72c2333071856016\jetified-firebase-common-19.3.0\AndroidManifest.xml:20:5-22:41
MERGED from [com.google.firebase:firebase-installations-interop:16.0.0] C:\Users\Usuario\.gradle\caches\transforms-2\files-2.1\f83230e685678f09189e9abde1693e34\jetified-firebase-installations-interop-16.0.0\AndroidManifest.xml:19:5-21:41
MERGED from [com.google.firebase:firebase-installations-interop:16.0.0] C:\Users\Usuario\.gradle\caches\transforms-2\files-2.1\f83230e685678f09189e9abde1693e34\jetified-firebase-installations-interop-16.0.0\AndroidManifest.xml:19:5-21:41
MERGED from [com.google.android.gms:play-services-tasks:17.0.0] C:\Users\Usuario\.gradle\caches\transforms-2\files-2.1\61b6250f2312bb6eaf48524efa92324f\jetified-play-services-tasks-17.0.0\AndroidManifest.xml:5:5-44
MERGED from [com.google.android.gms:play-services-tasks:17.0.0] C:\Users\Usuario\.gradle\caches\transforms-2\files-2.1\61b6250f2312bb6eaf48524efa92324f\jetified-play-services-tasks-17.0.0\AndroidManifest.xml:5:5-44
MERGED from [com.google.android.gms:play-services-measurement-impl:17.5.0] C:\Users\Usuario\.gradle\caches\transforms-2\files-2.1\32e9335ebde6078fe4d6f21d34f4ca53\jetified-play-services-measurement-impl-17.5.0\AndroidManifest.xml:20:5-44
MERGED from [com.google.android.gms:play-services-measurement-impl:17.5.0] C:\Users\Usuario\.gradle\caches\transforms-2\files-2.1\32e9335ebde6078fe4d6f21d34f4ca53\jetified-play-services-measurement-impl-17.5.0\AndroidManifest.xml:20:5-44
MERGED from [com.google.android.gms:play-services-ads-identifier:17.0.0] C:\Users\Usuario\.gradle\caches\transforms-2\files-2.1\e394617086bc0f39350a56b4b7bfa6fd\jetified-play-services-ads-identifier-17.0.0\AndroidManifest.xml:20:5-44
MERGED from [com.google.android.gms:play-services-ads-identifier:17.0.0] C:\Users\Usuario\.gradle\caches\transforms-2\files-2.1\e394617086bc0f39350a56b4b7bfa6fd\jetified-play-services-ads-identifier-17.0.0\AndroidManifest.xml:20:5-44
MERGED from [com.google.android.gms:play-services-measurement-sdk-api:17.5.0] C:\Users\Usuario\.gradle\caches\transforms-2\files-2.1\cd1ec5d99f4fdc26521eac46eeaab1a6\jetified-play-services-measurement-sdk-api-17.5.0\AndroidManifest.xml:20:5-44
MERGED from [com.google.android.gms:play-services-measurement-sdk-api:17.5.0] C:\Users\Usuario\.gradle\caches\transforms-2\files-2.1\cd1ec5d99f4fdc26521eac46eeaab1a6\jetified-play-services-measurement-sdk-api-17.5.0\AndroidManifest.xml:20:5-44
MERGED from [com.google.android.gms:play-services-measurement-base:17.5.0] C:\Users\Usuario\.gradle\caches\transforms-2\files-2.1\1e7293598cb4fba2f202db480bed682c\jetified-play-services-measurement-base-17.5.0\AndroidManifest.xml:5:5-44
MERGED from [com.google.android.gms:play-services-measurement-base:17.5.0] C:\Users\Usuario\.gradle\caches\transforms-2\files-2.1\1e7293598cb4fba2f202db480bed682c\jetified-play-services-measurement-base-17.5.0\AndroidManifest.xml:5:5-44
MERGED from [com.google.android.gms:play-services-stats:17.0.0] C:\Users\Usuario\.gradle\caches\transforms-2\files-2.1\b4cf759fbefe631836a911785c931842\jetified-play-services-stats-17.0.0\AndroidManifest.xml:5:5-44
MERGED from [com.google.android.gms:play-services-stats:17.0.0] C:\Users\Usuario\.gradle\caches\transforms-2\files-2.1\b4cf759fbefe631836a911785c931842\jetified-play-services-stats-17.0.0\AndroidManifest.xml:5:5-44
MERGED from [com.google.firebase:firebase-measurement-connector:18.0.0] C:\Users\Usuario\.gradle\caches\transforms-2\files-2.1\eb1940bc3fb957fd232db9f27e4df6ed\jetified-firebase-measurement-connector-18.0.0\AndroidManifest.xml:20:5-44
MERGED from [com.google.firebase:firebase-measurement-connector:18.0.0] C:\Users\Usuario\.gradle\caches\transforms-2\files-2.1\eb1940bc3fb957fd232db9f27e4df6ed\jetified-firebase-measurement-connector-18.0.0\AndroidManifest.xml:20:5-44
MERGED from [com.google.android.gms:play-services-basement:17.0.0] C:\Users\Usuario\.gradle\caches\transforms-2\files-2.1\f258e3825c6af3b14c7ec1616fae4742\jetified-play-services-basement-17.0.0\AndroidManifest.xml:20:5-44
MERGED from [com.google.android.gms:play-services-basement:17.0.0] C:\Users\Usuario\.gradle\caches\transforms-2\files-2.1\f258e3825c6af3b14c7ec1616fae4742\jetified-play-services-basement-17.0.0\AndroidManifest.xml:20:5-44
MERGED from [androidx.fragment:fragment:1.1.0] C:\Users\Usuario\.gradle\caches\transforms-2\files-2.1\e40e3efd5a968ec9847eae2ae9c7d8ac\fragment-1.1.0\AndroidManifest.xml:20:5-22:41
MERGED from [androidx.fragment:fragment:1.1.0] C:\Users\Usuario\.gradle\caches\transforms-2\files-2.1\e40e3efd5a968ec9847eae2ae9c7d8ac\fragment-1.1.0\AndroidManifest.xml:20:5-22:41
MERGED from [androidx.appcompat:appcompat-resources:1.1.0] C:\Users\Usuario\.gradle\caches\transforms-2\files-2.1\e66da8b5301e9a6b4d099a6eed9ee5b8\jetified-appcompat-resources-1.1.0\AndroidManifest.xml:20:5-22:41
MERGED from [androidx.appcompat:appcompat-resources:1.1.0] C:\Users\Usuario\.gradle\caches\transforms-2\files-2.1\e66da8b5301e9a6b4d099a6eed9ee5b8\jetified-appcompat-resources-1.1.0\AndroidManifest.xml:20:5-22:41
MERGED from [androidx.drawerlayout:drawerlayout:1.0.0] C:\Users\Usuario\.gradle\caches\transforms-2\files-2.1\6984223d1aa8f315c8c42812a9db3a3b\drawerlayout-1.0.0\AndroidManifest.xml:20:5-44
MERGED from [androidx.drawerlayout:drawerlayout:1.0.0] C:\Users\Usuario\.gradle\caches\transforms-2\files-2.1\6984223d1aa8f315c8c42812a9db3a3b\drawerlayout-1.0.0\AndroidManifest.xml:20:5-44
MERGED from [androidx.viewpager:viewpager:1.0.0] C:\Users\Usuario\.gradle\caches\transforms-2\files-2.1\bd24342c93fd52cb5e9c9c7bb35f50f1\viewpager-1.0.0\AndroidManifest.xml:20:5-44
MERGED from [androidx.viewpager:viewpager:1.0.0] C:\Users\Usuario\.gradle\caches\transforms-2\files-2.1\bd24342c93fd52cb5e9c9c7bb35f50f1\viewpager-1.0.0\AndroidManifest.xml:20:5-44
MERGED from [androidx.legacy:legacy-support-core-utils:1.0.0] C:\Users\Usuario\.gradle\caches\transforms-2\files-2.1\92ce016465e3a6bb2a1c0eeefed0193e\legacy-support-core-utils-1.0.0\AndroidManifest.xml:20:5-44
MERGED from [androidx.legacy:legacy-support-core-utils:1.0.0] C:\Users\Usuario\.gradle\caches\transforms-2\files-2.1\92ce016465e3a6bb2a1c0eeefed0193e\legacy-support-core-utils-1.0.0\AndroidManifest.xml:20:5-44
MERGED from [androidx.loader:loader:1.0.0] C:\Users\Usuario\.gradle\caches\transforms-2\files-2.1\148f2fd794536689e5a7e95e250ac390\loader-1.0.0\AndroidManifest.xml:20:5-44
MERGED from [androidx.loader:loader:1.0.0] C:\Users\Usuario\.gradle\caches\transforms-2\files-2.1\148f2fd794536689e5a7e95e250ac390\loader-1.0.0\AndroidManifest.xml:20:5-44
MERGED from [androidx.activity:activity:1.0.0] C:\Users\Usuario\.gradle\caches\transforms-2\files-2.1\5d880c01bc106322c4b2a83be9757563\jetified-activity-1.0.0\AndroidManifest.xml:20:5-22:41
MERGED from [androidx.activity:activity:1.0.0] C:\Users\Usuario\.gradle\caches\transforms-2\files-2.1\5d880c01bc106322c4b2a83be9757563\jetified-activity-1.0.0\AndroidManifest.xml:20:5-22:41
MERGED from [androidx.vectordrawable:vectordrawable-animated:1.1.0] C:\Users\Usuario\.gradle\caches\transforms-2\files-2.1\7369d370d1c3f03944cff7adb4eeb0ab\vectordrawable-animated-1.1.0\AndroidManifest.xml:20:5-22:41
MERGED from [androidx.vectordrawable:vectordrawable-animated:1.1.0] C:\Users\Usuario\.gradle\caches\transforms-2\files-2.1\7369d370d1c3f03944cff7adb4eeb0ab\vectordrawable-animated-1.1.0\AndroidManifest.xml:20:5-22:41
MERGED from [androidx.vectordrawable:vectordrawable:1.1.0] C:\Users\Usuario\.gradle\caches\transforms-2\files-2.1\57d4ae6adbb5ccfa9dafa8ad36f43ff8\vectordrawable-1.1.0\AndroidManifest.xml:20:5-22:41
MERGED from [androidx.vectordrawable:vectordrawable:1.1.0] C:\Users\Usuario\.gradle\caches\transforms-2\files-2.1\57d4ae6adbb5ccfa9dafa8ad36f43ff8\vectordrawable-1.1.0\AndroidManifest.xml:20:5-22:41
MERGED from [androidx.customview:customview:1.0.0] C:\Users\Usuario\.gradle\caches\transforms-2\files-2.1\2be247bf8cbe2dd724b705391ddac84d\customview-1.0.0\AndroidManifest.xml:20:5-44
MERGED from [androidx.customview:customview:1.0.0] C:\Users\Usuario\.gradle\caches\transforms-2\files-2.1\2be247bf8cbe2dd724b705391ddac84d\customview-1.0.0\AndroidManifest.xml:20:5-44
MERGED from [androidx.core:core:1.1.0] C:\Users\Usuario\.gradle\caches\transforms-2\files-2.1\6cdf211888e0a7ccbf81d39b63072413\core-1.1.0\AndroidManifest.xml:20:5-22:41
MERGED from [androidx.core:core:1.1.0] C:\Users\Usuario\.gradle\caches\transforms-2\files-2.1\6cdf211888e0a7ccbf81d39b63072413\core-1.1.0\AndroidManifest.xml:20:5-22:41
MERGED from [androidx.cursoradapter:cursoradapter:1.0.0] C:\Users\Usuario\.gradle\caches\transforms-2\files-2.1\705071dba30571a9226503cb1f0dac80\cursoradapter-1.0.0\AndroidManifest.xml:20:5-44
MERGED from [androidx.cursoradapter:cursoradapter:1.0.0] C:\Users\Usuario\.gradle\caches\transforms-2\files-2.1\705071dba30571a9226503cb1f0dac80\cursoradapter-1.0.0\AndroidManifest.xml:20:5-44
MERGED from [com.google.firebase:firebase-components:16.0.0] C:\Users\Usuario\.gradle\caches\transforms-2\files-2.1\626cd0cdd86577b53b05b9ceb0f9a7ca\jetified-firebase-components-16.0.0\AndroidManifest.xml:19:5-21:41
MERGED from [com.google.firebase:firebase-components:16.0.0] C:\Users\Usuario\.gradle\caches\transforms-2\files-2.1\626cd0cdd86577b53b05b9ceb0f9a7ca\jetified-firebase-components-16.0.0\AndroidManifest.xml:19:5-21:41
MERGED from [androidx.versionedparcelable:versionedparcelable:1.1.0] C:\Users\Usuario\.gradle\caches\transforms-2\files-2.1\324b5866ad2c13339651997b434b41f3\versionedparcelable-1.1.0\AndroidManifest.xml:20:5-22:41
MERGED from [androidx.versionedparcelable:versionedparcelable:1.1.0] C:\Users\Usuario\.gradle\caches\transforms-2\files-2.1\324b5866ad2c13339651997b434b41f3\versionedparcelable-1.1.0\AndroidManifest.xml:20:5-22:41
MERGED from [androidx.lifecycle:lifecycle-runtime:2.1.0] C:\Users\Usuario\.gradle\caches\transforms-2\files-2.1\6750b43e205c4f520c814d38be8b2dbe\lifecycle-runtime-2.1.0\AndroidManifest.xml:20:5-44
MERGED from [androidx.lifecycle:lifecycle-runtime:2.1.0] C:\Users\Usuario\.gradle\caches\transforms-2\files-2.1\6750b43e205c4f520c814d38be8b2dbe\lifecycle-runtime-2.1.0\AndroidManifest.xml:20:5-44
MERGED from [androidx.lifecycle:lifecycle-viewmodel:2.1.0] C:\Users\Usuario\.gradle\caches\transforms-2\files-2.1\4585a9ad75e82c7c92523d92d109b415\lifecycle-viewmodel-2.1.0\AndroidManifest.xml:20:5-44
MERGED from [androidx.lifecycle:lifecycle-viewmodel:2.1.0] C:\Users\Usuario\.gradle\caches\transforms-2\files-2.1\4585a9ad75e82c7c92523d92d109b415\lifecycle-viewmodel-2.1.0\AndroidManifest.xml:20:5-44
MERGED from [androidx.savedstate:savedstate:1.0.0] C:\Users\Usuario\.gradle\caches\transforms-2\files-2.1\d831d74eee9f185c588b244b4025c98f\jetified-savedstate-1.0.0\AndroidManifest.xml:20:5-22:41
MERGED from [androidx.savedstate:savedstate:1.0.0] C:\Users\Usuario\.gradle\caches\transforms-2\files-2.1\d831d74eee9f185c588b244b4025c98f\jetified-savedstate-1.0.0\AndroidManifest.xml:20:5-22:41
MERGED from [androidx.interpolator:interpolator:1.0.0] C:\Users\Usuario\.gradle\caches\transforms-2\files-2.1\6435850e23f2d01013861f1c8dbdb3a0\interpolator-1.0.0\AndroidManifest.xml:20:5-44
MERGED from [androidx.interpolator:interpolator:1.0.0] C:\Users\Usuario\.gradle\caches\transforms-2\files-2.1\6435850e23f2d01013861f1c8dbdb3a0\interpolator-1.0.0\AndroidManifest.xml:20:5-44
MERGED from [androidx.documentfile:documentfile:1.0.0] C:\Users\Usuario\.gradle\caches\transforms-2\files-2.1\6ca55331635d9ca1071738b385928a75\documentfile-1.0.0\AndroidManifest.xml:20:5-44
MERGED from [androidx.documentfile:documentfile:1.0.0] C:\Users\Usuario\.gradle\caches\transforms-2\files-2.1\6ca55331635d9ca1071738b385928a75\documentfile-1.0.0\AndroidManifest.xml:20:5-44
MERGED from [androidx.localbroadcastmanager:localbroadcastmanager:1.0.0] C:\Users\Usuario\.gradle\caches\transforms-2\files-2.1\bf3e5eb0de5dbaf7174c5a9a34f69c5a\localbroadcastmanager-1.0.0\AndroidManifest.xml:20:5-44
MERGED from [androidx.localbroadcastmanager:localbroadcastmanager:1.0.0] C:\Users\Usuario\.gradle\caches\transforms-2\files-2.1\bf3e5eb0de5dbaf7174c5a9a34f69c5a\localbroadcastmanager-1.0.0\AndroidManifest.xml:20:5-44
MERGED from [androidx.print:print:1.0.0] C:\Users\Usuario\.gradle\caches\transforms-2\files-2.1\d5fd7fbc692311a845217063332ce16c\print-1.0.0\AndroidManifest.xml:20:5-44
MERGED from [androidx.print:print:1.0.0] C:\Users\Usuario\.gradle\caches\transforms-2\files-2.1\d5fd7fbc692311a845217063332ce16c\print-1.0.0\AndroidManifest.xml:20:5-44
MERGED from [androidx.lifecycle:lifecycle-livedata:2.0.0] C:\Users\Usuario\.gradle\caches\transforms-2\files-2.1\f15487c13029c5c78640eedfe3e4179f\lifecycle-livedata-2.0.0\AndroidManifest.xml:20:5-44
MERGED from [androidx.lifecycle:lifecycle-livedata:2.0.0] C:\Users\Usuario\.gradle\caches\transforms-2\files-2.1\f15487c13029c5c78640eedfe3e4179f\lifecycle-livedata-2.0.0\AndroidManifest.xml:20:5-44
MERGED from [androidx.lifecycle:lifecycle-livedata-core:2.0.0] C:\Users\Usuario\.gradle\caches\transforms-2\files-2.1\b77454809810e03ad1b0b8586694d509\lifecycle-livedata-core-2.0.0\AndroidManifest.xml:20:5-44
MERGED from [androidx.lifecycle:lifecycle-livedata-core:2.0.0] C:\Users\Usuario\.gradle\caches\transforms-2\files-2.1\b77454809810e03ad1b0b8586694d509\lifecycle-livedata-core-2.0.0\AndroidManifest.xml:20:5-44
MERGED from [androidx.arch.core:core-runtime:2.0.0] C:\Users\Usuario\.gradle\caches\transforms-2\files-2.1\59b723f090061559cc5b6f12f2aff3bc\core-runtime-2.0.0\AndroidManifest.xml:20:5-44
MERGED from [androidx.arch.core:core-runtime:2.0.0] C:\Users\Usuario\.gradle\caches\transforms-2\files-2.1\59b723f090061559cc5b6f12f2aff3bc\core-runtime-2.0.0\AndroidManifest.xml:20:5-44
MERGED from [com.google.firebase:protolite-well-known-types:16.0.0] C:\Users\Usuario\.gradle\caches\transforms-2\files-2.1\d5eab90321a72c93b02ce2e3c3d02d98\jetified-protolite-well-known-types-16.0.0\AndroidManifest.xml:7:5-9:41
MERGED from [com.google.firebase:protolite-well-known-types:16.0.0] C:\Users\Usuario\.gradle\caches\transforms-2\files-2.1\d5eab90321a72c93b02ce2e3c3d02d98\jetified-protolite-well-known-types-16.0.0\AndroidManifest.xml:7:5-9:41
INJECTED from C:\Users\Usuario\AndroidStudioProjects\PruebaFirebase\app\src\main\AndroidManifest.xml
INJECTED from C:\Users\Usuario\AndroidStudioProjects\PruebaFirebase\app\src\main\AndroidManifest.xml
	android:targetSdkVersion
		INJECTED from C:\Users\Usuario\AndroidStudioProjects\PruebaFirebase\app\src\main\AndroidManifest.xml
		ADDED from C:\Users\Usuario\AndroidStudioProjects\PruebaFirebase\app\src\main\AndroidManifest.xml
		INJECTED from C:\Users\Usuario\AndroidStudioProjects\PruebaFirebase\app\src\main\AndroidManifest.xml
	android:minSdkVersion
		INJECTED from C:\Users\Usuario\AndroidStudioProjects\PruebaFirebase\app\src\main\AndroidManifest.xml
		ADDED from C:\Users\Usuario\AndroidStudioProjects\PruebaFirebase\app\src\main\AndroidManifest.xml
		INJECTED from C:\Users\Usuario\AndroidStudioProjects\PruebaFirebase\app\src\main\AndroidManifest.xml
uses-permission#android.permission.ACCESS_NETWORK_STATE
ADDED from [com.google.firebase:firebase-firestore:17.1.2] C:\Users\Usuario\.gradle\caches\transforms-2\files-2.1\abb1bf3081cfea167d8b889e80df37ea\jetified-firebase-firestore-17.1.2\AndroidManifest.xml:10:5-79
MERGED from [com.google.firebase:firebase-database:19.3.1] C:\Users\Usuario\.gradle\caches\transforms-2\files-2.1\227f78203b0b12a1d5db88f7e5b8d4d8\jetified-firebase-database-19.3.1\AndroidManifest.xml:25:5-79
MERGED from [com.google.firebase:firebase-database:19.3.1] C:\Users\Usuario\.gradle\caches\transforms-2\files-2.1\227f78203b0b12a1d5db88f7e5b8d4d8\jetified-firebase-database-19.3.1\AndroidManifest.xml:25:5-79
MERGED from [com.google.android.gms:play-services-measurement:17.5.0] C:\Users\Usuario\.gradle\caches\transforms-2\files-2.1\58a41218ea342964128b5404cfbbd677\jetified-play-services-measurement-17.5.0\AndroidManifest.xml:24:5-79
MERGED from [com.google.android.gms:play-services-measurement:17.5.0] C:\Users\Usuario\.gradle\caches\transforms-2\files-2.1\58a41218ea342964128b5404cfbbd677\jetified-play-services-measurement-17.5.0\AndroidManifest.xml:24:5-79
MERGED from [com.google.android.gms:play-services-measurement-api:17.5.0] C:\Users\Usuario\.gradle\caches\transforms-2\files-2.1\35f10b9aa3282e0c4ce3ae644ab33b75\jetified-play-services-measurement-api-17.5.0\AndroidManifest.xml:23:5-79
MERGED from [com.google.android.gms:play-services-measurement-api:17.5.0] C:\Users\Usuario\.gradle\caches\transforms-2\files-2.1\35f10b9aa3282e0c4ce3ae644ab33b75\jetified-play-services-measurement-api-17.5.0\AndroidManifest.xml:23:5-79
MERGED from [com.google.firebase:firebase-installations:16.3.2] C:\Users\Usuario\.gradle\caches\transforms-2\files-2.1\4d2d6e18a23e71677122246f9e56e667\jetified-firebase-installations-16.3.2\AndroidManifest.xml:10:5-79
MERGED from [com.google.firebase:firebase-installations:16.3.2] C:\Users\Usuario\.gradle\caches\transforms-2\files-2.1\4d2d6e18a23e71677122246f9e56e667\jetified-firebase-installations-16.3.2\AndroidManifest.xml:10:5-79
MERGED from [com.google.android.gms:play-services-measurement-impl:17.5.0] C:\Users\Usuario\.gradle\caches\transforms-2\files-2.1\32e9335ebde6078fe4d6f21d34f4ca53\jetified-play-services-measurement-impl-17.5.0\AndroidManifest.xml:24:5-79
MERGED from [com.google.android.gms:play-services-measurement-impl:17.5.0] C:\Users\Usuario\.gradle\caches\transforms-2\files-2.1\32e9335ebde6078fe4d6f21d34f4ca53\jetified-play-services-measurement-impl-17.5.0\AndroidManifest.xml:24:5-79
MERGED from [com.google.android.gms:play-services-measurement-sdk-api:17.5.0] C:\Users\Usuario\.gradle\caches\transforms-2\files-2.1\cd1ec5d99f4fdc26521eac46eeaab1a6\jetified-play-services-measurement-sdk-api-17.5.0\AndroidManifest.xml:24:5-79
MERGED from [com.google.android.gms:play-services-measurement-sdk-api:17.5.0] C:\Users\Usuario\.gradle\caches\transforms-2\files-2.1\cd1ec5d99f4fdc26521eac46eeaab1a6\jetified-play-services-measurement-sdk-api-17.5.0\AndroidManifest.xml:24:5-79
	android:name
		ADDED from [com.google.firebase:firebase-firestore:17.1.2] C:\Users\Usuario\.gradle\caches\transforms-2\files-2.1\abb1bf3081cfea167d8b889e80df37ea\jetified-firebase-firestore-17.1.2\AndroidManifest.xml:10:22-76
service#com.google.firebase.components.ComponentDiscoveryService
ADDED from [com.google.firebase:firebase-firestore:17.1.2] C:\Users\Usuario\.gradle\caches\transforms-2\files-2.1\abb1bf3081cfea167d8b889e80df37ea\jetified-firebase-firestore-17.1.2\AndroidManifest.xml:14:9-18:19
MERGED from [com.google.firebase:firebase-database:19.3.1] C:\Users\Usuario\.gradle\caches\transforms-2\files-2.1\227f78203b0b12a1d5db88f7e5b8d4d8\jetified-firebase-database-19.3.1\AndroidManifest.xml:29:9-35:19
MERGED from [com.google.firebase:firebase-database:19.3.1] C:\Users\Usuario\.gradle\caches\transforms-2\files-2.1\227f78203b0b12a1d5db88f7e5b8d4d8\jetified-firebase-database-19.3.1\AndroidManifest.xml:29:9-35:19
MERGED from [com.google.android.gms:play-services-measurement-api:17.5.0] C:\Users\Usuario\.gradle\caches\transforms-2\files-2.1\35f10b9aa3282e0c4ce3ae644ab33b75\jetified-play-services-measurement-api-17.5.0\AndroidManifest.xml:27:9-33:19
MERGED from [com.google.android.gms:play-services-measurement-api:17.5.0] C:\Users\Usuario\.gradle\caches\transforms-2\files-2.1\35f10b9aa3282e0c4ce3ae644ab33b75\jetified-play-services-measurement-api-17.5.0\AndroidManifest.xml:27:9-33:19
MERGED from [com.google.firebase:firebase-installations:16.3.2] C:\Users\Usuario\.gradle\caches\transforms-2\files-2.1\4d2d6e18a23e71677122246f9e56e667\jetified-firebase-installations-16.3.2\AndroidManifest.xml:14:9-20:19
MERGED from [com.google.firebase:firebase-installations:16.3.2] C:\Users\Usuario\.gradle\caches\transforms-2\files-2.1\4d2d6e18a23e71677122246f9e56e667\jetified-firebase-installations-16.3.2\AndroidManifest.xml:14:9-20:19
MERGED from [com.google.firebase:firebase-common:19.3.0] C:\Users\Usuario\.gradle\caches\transforms-2\files-2.1\d5ae2f905dca277d72c2333071856016\jetified-firebase-common-19.3.0\AndroidManifest.xml:32:9-36:35
MERGED from [com.google.firebase:firebase-common:19.3.0] C:\Users\Usuario\.gradle\caches\transforms-2\files-2.1\d5ae2f905dca277d72c2333071856016\jetified-firebase-common-19.3.0\AndroidManifest.xml:32:9-36:35
	android:exported
		ADDED from [com.google.firebase:firebase-database:19.3.1] C:\Users\Usuario\.gradle\caches\transforms-2\files-2.1\227f78203b0b12a1d5db88f7e5b8d4d8\jetified-firebase-database-19.3.1\AndroidManifest.xml:31:13-37
	tools:targetApi
		ADDED from [com.google.firebase:firebase-common:19.3.0] C:\Users\Usuario\.gradle\caches\transforms-2\files-2.1\d5ae2f905dca277d72c2333071856016\jetified-firebase-common-19.3.0\AndroidManifest.xml:36:13-32
	android:directBootAware
		ADDED from [com.google.firebase:firebase-common:19.3.0] C:\Users\Usuario\.gradle\caches\transforms-2\files-2.1\d5ae2f905dca277d72c2333071856016\jetified-firebase-common-19.3.0\AndroidManifest.xml:34:13-43
	android:name
		ADDED from [com.google.firebase:firebase-firestore:17.1.2] C:\Users\Usuario\.gradle\caches\transforms-2\files-2.1\abb1bf3081cfea167d8b889e80df37ea\jetified-firebase-firestore-17.1.2\AndroidManifest.xml:14:18-89
meta-data#com.google.firebase.components:com.google.firebase.firestore.FirestoreRegistrar
ADDED from [com.google.firebase:firebase-firestore:17.1.2] C:\Users\Usuario\.gradle\caches\transforms-2\files-2.1\abb1bf3081cfea167d8b889e80df37ea\jetified-firebase-firestore-17.1.2\AndroidManifest.xml:15:13-17:85
	android:value
		ADDED from [com.google.firebase:firebase-firestore:17.1.2] C:\Users\Usuario\.gradle\caches\transforms-2\files-2.1\abb1bf3081cfea167d8b889e80df37ea\jetified-firebase-firestore-17.1.2\AndroidManifest.xml:17:17-82
	android:name
		ADDED from [com.google.firebase:firebase-firestore:17.1.2] C:\Users\Usuario\.gradle\caches\transforms-2\files-2.1\abb1bf3081cfea167d8b889e80df37ea\jetified-firebase-firestore-17.1.2\AndroidManifest.xml:16:17-111
meta-data#com.google.firebase.components:com.google.firebase.database.DatabaseRegistrar
ADDED from [com.google.firebase:firebase-database:19.3.1] C:\Users\Usuario\.gradle\caches\transforms-2\files-2.1\227f78203b0b12a1d5db88f7e5b8d4d8\jetified-firebase-database-19.3.1\AndroidManifest.xml:32:13-34:85
	android:value
		ADDED from [com.google.firebase:firebase-database:19.3.1] C:\Users\Usuario\.gradle\caches\transforms-2\files-2.1\227f78203b0b12a1d5db88f7e5b8d4d8\jetified-firebase-database-19.3.1\AndroidManifest.xml:34:17-82
	android:name
		ADDED from [com.google.firebase:firebase-database:19.3.1] C:\Users\Usuario\.gradle\caches\transforms-2\files-2.1\227f78203b0b12a1d5db88f7e5b8d4d8\jetified-firebase-database-19.3.1\AndroidManifest.xml:33:17-109
activity#com.google.android.gms.common.api.GoogleApiActivity
ADDED from [com.google.android.gms:play-services-base:17.0.0] C:\Users\Usuario\.gradle\caches\transforms-2\files-2.1\9d9f5eefb5bcc469207d44112eb03d4a\jetified-play-services-base-17.0.0\AndroidManifest.xml:23:9-26:75
	android:exported
		ADDED from [com.google.android.gms:play-services-base:17.0.0] C:\Users\Usuario\.gradle\caches\transforms-2\files-2.1\9d9f5eefb5bcc469207d44112eb03d4a\jetified-play-services-base-17.0.0\AndroidManifest.xml:25:13-37
	android:theme
		ADDED from [com.google.android.gms:play-services-base:17.0.0] C:\Users\Usuario\.gradle\caches\transforms-2\files-2.1\9d9f5eefb5bcc469207d44112eb03d4a\jetified-play-services-base-17.0.0\AndroidManifest.xml:26:13-72
	android:name
		ADDED from [com.google.android.gms:play-services-base:17.0.0] C:\Users\Usuario\.gradle\caches\transforms-2\files-2.1\9d9f5eefb5bcc469207d44112eb03d4a\jetified-play-services-base-17.0.0\AndroidManifest.xml:24:13-79
uses-permission#android.permission.WAKE_LOCK
ADDED from [com.google.android.gms:play-services-measurement:17.5.0] C:\Users\Usuario\.gradle\caches\transforms-2\files-2.1\58a41218ea342964128b5404cfbbd677\jetified-play-services-measurement-17.5.0\AndroidManifest.xml:25:5-68
MERGED from [com.google.android.gms:play-services-measurement-api:17.5.0] C:\Users\Usuario\.gradle\caches\transforms-2\files-2.1\35f10b9aa3282e0c4ce3ae644ab33b75\jetified-play-services-measurement-api-17.5.0\AndroidManifest.xml:24:5-68
MERGED from [com.google.android.gms:play-services-measurement-api:17.5.0] C:\Users\Usuario\.gradle\caches\transforms-2\files-2.1\35f10b9aa3282e0c4ce3ae644ab33b75\jetified-play-services-measurement-api-17.5.0\AndroidManifest.xml:24:5-68
MERGED from [com.google.android.gms:play-services-measurement-impl:17.5.0] C:\Users\Usuario\.gradle\caches\transforms-2\files-2.1\32e9335ebde6078fe4d6f21d34f4ca53\jetified-play-services-measurement-impl-17.5.0\AndroidManifest.xml:25:5-68
MERGED from [com.google.android.gms:play-services-measurement-impl:17.5.0] C:\Users\Usuario\.gradle\caches\transforms-2\files-2.1\32e9335ebde6078fe4d6f21d34f4ca53\jetified-play-services-measurement-impl-17.5.0\AndroidManifest.xml:25:5-68
MERGED from [com.google.android.gms:play-services-measurement-sdk-api:17.5.0] C:\Users\Usuario\.gradle\caches\transforms-2\files-2.1\cd1ec5d99f4fdc26521eac46eeaab1a6\jetified-play-services-measurement-sdk-api-17.5.0\AndroidManifest.xml:25:5-68
MERGED from [com.google.android.gms:play-services-measurement-sdk-api:17.5.0] C:\Users\Usuario\.gradle\caches\transforms-2\files-2.1\cd1ec5d99f4fdc26521eac46eeaab1a6\jetified-play-services-measurement-sdk-api-17.5.0\AndroidManifest.xml:25:5-68
	android:name
		ADDED from [com.google.android.gms:play-services-measurement:17.5.0] C:\Users\Usuario\.gradle\caches\transforms-2\files-2.1\58a41218ea342964128b5404cfbbd677\jetified-play-services-measurement-17.5.0\AndroidManifest.xml:25:22-65
uses-permission#com.google.android.finsky.permission.BIND_GET_INSTALL_REFERRER_SERVICE
ADDED from [com.google.android.gms:play-services-measurement:17.5.0] C:\Users\Usuario\.gradle\caches\transforms-2\files-2.1\58a41218ea342964128b5404cfbbd677\jetified-play-services-measurement-17.5.0\AndroidManifest.xml:26:5-110
MERGED from [com.google.android.gms:play-services-measurement-impl:17.5.0] C:\Users\Usuario\.gradle\caches\transforms-2\files-2.1\32e9335ebde6078fe4d6f21d34f4ca53\jetified-play-services-measurement-impl-17.5.0\AndroidManifest.xml:26:5-110
MERGED from [com.google.android.gms:play-services-measurement-impl:17.5.0] C:\Users\Usuario\.gradle\caches\transforms-2\files-2.1\32e9335ebde6078fe4d6f21d34f4ca53\jetified-play-services-measurement-impl-17.5.0\AndroidManifest.xml:26:5-110
	android:name
		ADDED from [com.google.android.gms:play-services-measurement:17.5.0] C:\Users\Usuario\.gradle\caches\transforms-2\files-2.1\58a41218ea342964128b5404cfbbd677\jetified-play-services-measurement-17.5.0\AndroidManifest.xml:26:22-107
receiver#com.google.android.gms.measurement.AppMeasurementReceiver
ADDED from [com.google.android.gms:play-services-measurement:17.5.0] C:\Users\Usuario\.gradle\caches\transforms-2\files-2.1\58a41218ea342964128b5404cfbbd677\jetified-play-services-measurement-17.5.0\AndroidManifest.xml:29:9-33:20
	android:enabled
		ADDED from [com.google.android.gms:play-services-measurement:17.5.0] C:\Users\Usuario\.gradle\caches\transforms-2\files-2.1\58a41218ea342964128b5404cfbbd677\jetified-play-services-measurement-17.5.0\AndroidManifest.xml:31:13-35
	android:exported
		ADDED from [com.google.android.gms:play-services-measurement:17.5.0] C:\Users\Usuario\.gradle\caches\transforms-2\files-2.1\58a41218ea342964128b5404cfbbd677\jetified-play-services-measurement-17.5.0\AndroidManifest.xml:32:13-37
	android:name
		ADDED from [com.google.android.gms:play-services-measurement:17.5.0] C:\Users\Usuario\.gradle\caches\transforms-2\files-2.1\58a41218ea342964128b5404cfbbd677\jetified-play-services-measurement-17.5.0\AndroidManifest.xml:30:13-85
service#com.google.android.gms.measurement.AppMeasurementService
ADDED from [com.google.android.gms:play-services-measurement:17.5.0] C:\Users\Usuario\.gradle\caches\transforms-2\files-2.1\58a41218ea342964128b5404cfbbd677\jetified-play-services-measurement-17.5.0\AndroidManifest.xml:35:9-38:40
	android:enabled
		ADDED from [com.google.android.gms:play-services-measurement:17.5.0] C:\Users\Usuario\.gradle\caches\transforms-2\files-2.1\58a41218ea342964128b5404cfbbd677\jetified-play-services-measurement-17.5.0\AndroidManifest.xml:37:13-35
	android:exported
		ADDED from [com.google.android.gms:play-services-measurement:17.5.0] C:\Users\Usuario\.gradle\caches\transforms-2\files-2.1\58a41218ea342964128b5404cfbbd677\jetified-play-services-measurement-17.5.0\AndroidManifest.xml:38:13-37
	android:name
		ADDED from [com.google.android.gms:play-services-measurement:17.5.0] C:\Users\Usuario\.gradle\caches\transforms-2\files-2.1\58a41218ea342964128b5404cfbbd677\jetified-play-services-measurement-17.5.0\AndroidManifest.xml:36:13-84
service#com.google.android.gms.measurement.AppMeasurementJobService
ADDED from [com.google.android.gms:play-services-measurement:17.5.0] C:\Users\Usuario\.gradle\caches\transforms-2\files-2.1\58a41218ea342964128b5404cfbbd677\jetified-play-services-measurement-17.5.0\AndroidManifest.xml:39:9-43:72
	android:enabled
		ADDED from [com.google.android.gms:play-services-measurement:17.5.0] C:\Users\Usuario\.gradle\caches\transforms-2\files-2.1\58a41218ea342964128b5404cfbbd677\jetified-play-services-measurement-17.5.0\AndroidManifest.xml:41:13-35
	android:exported
		ADDED from [com.google.android.gms:play-services-measurement:17.5.0] C:\Users\Usuario\.gradle\caches\transforms-2\files-2.1\58a41218ea342964128b5404cfbbd677\jetified-play-services-measurement-17.5.0\AndroidManifest.xml:42:13-37
	android:permission
		ADDED from [com.google.android.gms:play-services-measurement:17.5.0] C:\Users\Usuario\.gradle\caches\transforms-2\files-2.1\58a41218ea342964128b5404cfbbd677\jetified-play-services-measurement-17.5.0\AndroidManifest.xml:43:13-69
	android:name
		ADDED from [com.google.android.gms:play-services-measurement:17.5.0] C:\Users\Usuario\.gradle\caches\transforms-2\files-2.1\58a41218ea342964128b5404cfbbd677\jetified-play-services-measurement-17.5.0\AndroidManifest.xml:40:13-87
meta-data#com.google.firebase.components:com.google.firebase.analytics.connector.internal.AnalyticsConnectorRegistrar
ADDED from [com.google.android.gms:play-services-measurement-api:17.5.0] C:\Users\Usuario\.gradle\caches\transforms-2\files-2.1\35f10b9aa3282e0c4ce3ae644ab33b75\jetified-play-services-measurement-api-17.5.0\AndroidManifest.xml:30:13-32:85
	android:value
		ADDED from [com.google.android.gms:play-services-measurement-api:17.5.0] C:\Users\Usuario\.gradle\caches\transforms-2\files-2.1\35f10b9aa3282e0c4ce3ae644ab33b75\jetified-play-services-measurement-api-17.5.0\AndroidManifest.xml:32:17-82
	android:name
		ADDED from [com.google.android.gms:play-services-measurement-api:17.5.0] C:\Users\Usuario\.gradle\caches\transforms-2\files-2.1\35f10b9aa3282e0c4ce3ae644ab33b75\jetified-play-services-measurement-api-17.5.0\AndroidManifest.xml:31:17-139
meta-data#com.google.firebase.components:com.google.firebase.installations.FirebaseInstallationsRegistrar
ADDED from [com.google.firebase:firebase-installations:16.3.2] C:\Users\Usuario\.gradle\caches\transforms-2\files-2.1\4d2d6e18a23e71677122246f9e56e667\jetified-firebase-installations-16.3.2\AndroidManifest.xml:17:13-19:85
	android:value
		ADDED from [com.google.firebase:firebase-installations:16.3.2] C:\Users\Usuario\.gradle\caches\transforms-2\files-2.1\4d2d6e18a23e71677122246f9e56e667\jetified-firebase-installations-16.3.2\AndroidManifest.xml:19:17-82
	android:name
		ADDED from [com.google.firebase:firebase-installations:16.3.2] C:\Users\Usuario\.gradle\caches\transforms-2\files-2.1\4d2d6e18a23e71677122246f9e56e667\jetified-firebase-installations-16.3.2\AndroidManifest.xml:18:17-127
provider#com.google.firebase.provider.FirebaseInitProvider
ADDED from [com.google.firebase:firebase-common:19.3.0] C:\Users\Usuario\.gradle\caches\transforms-2\files-2.1\d5ae2f905dca277d72c2333071856016\jetified-firebase-common-19.3.0\AndroidManifest.xml:26:9-30:39
	android:authorities
		ADDED from [com.google.firebase:firebase-common:19.3.0] C:\Users\Usuario\.gradle\caches\transforms-2\files-2.1\d5ae2f905dca277d72c2333071856016\jetified-firebase-common-19.3.0\AndroidManifest.xml:28:13-72
	android:exported
		ADDED from [com.google.firebase:firebase-common:19.3.0] C:\Users\Usuario\.gradle\caches\transforms-2\files-2.1\d5ae2f905dca277d72c2333071856016\jetified-firebase-common-19.3.0\AndroidManifest.xml:29:13-37
	android:initOrder
		ADDED from [com.google.firebase:firebase-common:19.3.0] C:\Users\Usuario\.gradle\caches\transforms-2\files-2.1\d5ae2f905dca277d72c2333071856016\jetified-firebase-common-19.3.0\AndroidManifest.xml:30:13-36
	android:name
		ADDED from [com.google.firebase:firebase-common:19.3.0] C:\Users\Usuario\.gradle\caches\transforms-2\files-2.1\d5ae2f905dca277d72c2333071856016\jetified-firebase-common-19.3.0\AndroidManifest.xml:27:13-77
meta-data#com.google.android.gms.version
ADDED from [com.google.android.gms:play-services-basement:17.0.0] C:\Users\Usuario\.gradle\caches\transforms-2\files-2.1\f258e3825c6af3b14c7ec1616fae4742\jetified-play-services-basement-17.0.0\AndroidManifest.xml:23:9-25:69
	android:value
		ADDED from [com.google.android.gms:play-services-basement:17.0.0] C:\Users\Usuario\.gradle\caches\transforms-2\files-2.1\f258e3825c6af3b14c7ec1616fae4742\jetified-play-services-basement-17.0.0\AndroidManifest.xml:25:13-66
	android:name
		ADDED from [com.google.android.gms:play-services-basement:17.0.0] C:\Users\Usuario\.gradle\caches\transforms-2\files-2.1\f258e3825c6af3b14c7ec1616fae4742\jetified-play-services-basement-17.0.0\AndroidManifest.xml:24:13-58
